Read an exemplar table from an Excel file — load_exemplar_table • PFUPipeline
…
year, country
See IEATools::iea_cols.

    Value

an exemplar table

    Details

    This function gathers (actually, tidyr::pivot_longer()) years into a Year column.

    Examples

load_exemplar_table()
#> # A tibble: 13,176 × 5
#>    Region.code Exemplar.country Country Year  Prev.names
#>    <chr>       <chr>            <chr>   <chr> <chr>     
#>  1 NAMR        USA              ABW     1960  OAMR      
#>  2 NAMR        USA              ABW     1961  OAMR      
#>  3 NAMR        USA              ABW     1962  OAMR      
#>  4 NAMR        USA              ABW     1963  OAMR      
#>  5 NAMR        USA              ABW     1964  OAMR      
#>  6 NAMR        USA              ABW     1965  OAMR      
#>  7 NAMR        USA              ABW     1966  OAMR      
#>  8 NAMR        USA              ABW     1967  OAMR      
#>  9 NAMR        USA              ABW     1968  OAMR      
#> 10 NAMR        USA              ABW     1969  OAMR      
#> # ℹ 13,166 more rows
…
